…
-   Since the dataset mostly doesn’t have the death count values for
    specific types of drug overdose, for this dataset, we only choose
    the data\_value with indicator of `Number of Deaths`,
    `Percent with drugs specified`, and
    `Number of Drug Overdose Deaths`.

``` r
drug_overdose_death = 
  drug_overdose_52 %>% 
  select(-c( footnote_symbol, percent_complete, period, percent_pending_investigation, predicted_value)) %>% 
  filter(indicator %in% c("Number of Deaths", "Percent with drugs specified", "Number of Drug Overdose Deaths"))
drug_overdose_death
```

    ## # A tibble: 11,856 x 7
    ## # Groups:   state_name, year [364]
    ##    state_name state year  month    indicator     data_value footnote            
    ##    <fct>      <chr> <fct> <fct>    <chr>              <dbl> <chr>               
    ##  1 Alabama    AL    2015  January  Number of De~    50565   Numbers may differ ~
    ##  2 Alabama    AL    2015  January  Percent with~       49.3 Numbers may differ ~
    ##  3 Alabama    AL    2015  January  Number of Dr~      738   Numbers may differ ~
    ##  4 Alabama    AL    2015  February Percent with~       46.9 Numbers may differ ~
    ##  5 Alabama    AL    2015  February Number of Dr~      736   Numbers may differ ~
    ##  6 Alabama    AL    2015  February Number of De~    50930   Numbers may differ ~
    ##  7 Alabama    AL    2015  March    Number of Dr~      720   Numbers may differ ~
    ##  8 Alabama    AL    2015  March    Number of De~    50870   Numbers may differ ~
    ##  9 Alabama    AL    2015  March    Percent with~       49.6 Numbers may differ ~
    ## 10 Alabama    AL    2015  April    Number of Dr~      723   Numbers may differ ~
    ## # ... with 11,846 more rows
…
## Analysis by drug

``` r
drug_categories = 
  drug_overdose_52 %>%
  ungroup() %>% 
  select(-c(state, footnote_symbol, percent_complete, period, percent_pending_investigation, footnote, predicted_value)) %>% 
  filter(str_detect(indicator, "T4"))
drug_categories
```

    ## # A tibble: 29,412 x 8
    ##    state_name year  month    indicator    data_value low_data_quality suppressed
    ##    <fct>      <fct> <fct>    <chr>             <dbl>            <dbl>      <dbl>
    ##  1 Alaska     2015  January  Natural & s~         NA                1          0
    ##  2 Alaska     2015  January  Natural & s~         NA                1          0
    ##  3 Alaska     2015  January  Natural, se~         NA                1          0
    ##  4 Alaska     2015  January  Synthetic o~         NA                1          0
    ##  5 Alaska     2015  January  Heroin (T40~         NA                1          0
    ##  6 Alaska     2015  January  Methadone (~         NA                1          1
    ##  7 Alaska     2015  January  Opioids (T4~         NA                1          0
    ##  8 Alaska     2015  January  Cocaine (T4~         NA                1          0
    ##  9 Alaska     2015  January  Psychostimu~         NA                1          0
    ## 10 Alaska     2015  February Natural & s~         NA                1          0
    ## # ... with 29,402 more rows, and 1 more variable: underreported <dbl>
…
